Analysis of Hotel Booking in relation to child stay.
…
Converting arrival month to factor to rearrange from Jan - Dec.

hotel_stayed %>% 
  mutate(arrival_date_month = factor(arrival_date_month, levels = month.name)) %>% 
  count(hotel, arrival_date_month, children) %>%
  group_by(hotel, children) %>%
  mutate(proportion =  n/sum(n))

## # A tibble: 48 x 5
## # Groups:   hotel, children [4]
##    hotel      arrival_date_month children     n proportion
##    <chr>      <fct>              <chr>    <int>      <dbl>
##  1 City Hotel January            children   153     0.0432
##  2 City Hotel January            none      2101     0.0492
##  3 City Hotel February           children   263     0.0743
##  4 City Hotel February           none      2801     0.0656
##  5 City Hotel March              children   213     0.0602
##  6 City Hotel March              none      3859     0.0904
##  7 City Hotel April              children   339     0.0957
##  8 City Hotel April              none      3676     0.0861
##  9 City Hotel May                children   205     0.0579
## 10 City Hotel May                none      4374     0.102 
## # … with 38 more rows
…
