Titanic Machine Learning for Disaster
…
Title has Dr, Rv etc. so converting them into male according to sex.

for(i in 1:nrow(df_titanic)){
  if(df_titanic[i,13] == "other"){
    if(df_titanic[i,4] == "male"){df_titanic[i, 13] = "Mr"}
  }
}

df_titanic %>% count(fare, sort =  TRUE)

## # A tibble: 282 x 2
##     fare     n
##    <dbl> <int>
##  1  8.05    60
##  2 13       59
##  3  7.75    55
##  4 26       50
##  5  7.90    49
##  6 10.5     35
##  7  7.78    26
##  8  7.23    24
##  9  7.92    23
## 10 26.6     22
## # … with 272 more rows
…
